tests/h2dl-2.x/shiftregister/test.vcd
$date
Tue Aug 04 03:34:24 CET 47620
$end
$version
H2DL 2.x Simulator Test
$end
$timescale 1ps $end
$scope module tb_top $end
$var reg 6 ! sr2 $end
$var reg 1 " sr_5 $end
$var reg 1 # sr_4 $end
$var reg 1 $ sr_3 $end
$var reg 1 % sr_2 $end
$var reg 1 & sr_1 $end
$var reg 1 ' sr_0 $end
$var reg 1 ( ck1 $end
$upscope $end
$enddefinitions $end
$dumpvars
bxxxxxx ! 
bx " 
bx # 
bx $ 
bx % 
bx & 
bx ' 
bx ( 
$end
#0
b000000 ! 
b0 " 
b0 # 
b0 $ 
b0 % 
b0 & 
b0 ' 
b0 ( 
#10
b1 ( 
#20
b1 ( 
#30
b1 ( 
#40
b1 ( 
#50
b1 ( 
#60
b1 ( 
#70
b1 ( 
#80
b1 ( 
#90
b1 ( 
#100
b1 ( 
#110
b1 ( 
#120
b1 ( 
#130
b1 ( 
#140
b1 ( 
#150
b1 ( 
#160
b1 ( 
#170
b1 ( 
#180
b1 ( 
#190
b1 ( 
#200
b1 ( 
#210
b1 ( 
#220
b1 ( 
#230
b1 ( 
#240
b1 ( 
#250
b1 ( 
#260
b1 ( 
#270
b1 ( 
#280
b1 ( 
#290
b1 ( 
