tests/h2dl-2.x/sim2/test_reset.vcd
$date
Thu May 16 02:55:43 CET 47658
$end
$version
H2DL 2.x Simulator Test
$end
$timescale 1ps $end
$scope module tb_top $end
$var reg 1 ! ck1 $end
$var reg 1 " reset $end
$var reg 2 # sr2 $end
$upscope $end
$enddefinitions $end
$dumpvars
bx !
bx "
bx #
$end
b0 ! 
b0 " 
b00 # 
#10
b1 ! 
b01 # 
#20
b0 ! 
#25
b00 # 
b1 " 
#30
b1 ! 
#40
b0 ! 
#45
b0 " 
#50
b1 ! 
b01 # 
#60
b0 ! 
#70
b1 ! 
b10 # 
#80
b0 ! 
#90
b1 ! 
b11 # 
#100
b0 ! 
#110
b1 ! 
b00 # 
#120
b0 ! 
#130
b1 ! 
b01 # 
#140
b0 ! 
#150
b1 ! 
b10 # 
#160
b0 ! 
#170
b1 ! 
b11 # 
#180
b0 ! 
#190
b1 ! 
b00 # 
#200
b0 ! 
#210
b1 ! 
b01 # 
#220
b0 ! 
#230
b1 ! 
b10 # 
#240
b0 ! 
#250
b1 ! 
b11 # 
#260
b0 ! 
#270
b1 ! 
b00 # 
#280
b0 ! 
#290
b1 ! 
b01 # 
#300
b0 ! 
#310
b1 ! 
b10 # 
#320
b0 ! 
#330
b1 ! 
b11 # 
#340
b0 ! 
#350
b1 ! 
b00 # 
#360
b0 ! 
#370
b1 ! 
b01 # 
#380
b0 ! 
#390
b1 ! 
b10 # 
#400
b0 ! 
#410
b1 ! 
b11 # 
#420
b0 ! 
#430
b1 ! 
b00 # 
#440
b0 ! 
#450
b1 ! 
b01 # 
#460
b0 ! 
#470
b1 ! 
b10 # 
#480
b0 ! 
#490
b1 ! 
b11 # 
#500
b0 ! 
#510
b1 ! 
b00 # 
#520
b0 ! 
#530
b1 ! 
b01 # 
#540
b0 ! 
#550
b1 ! 
b10 # 
#560
b0 ! 
#570
b1 ! 
b11 # 
#580
b0 ! 
#590
b1 ! 
b00 # 
#600
b0 ! 
#610
b1 ! 
b01 # 
#620
b0 ! 
#630
b1 ! 
b10 # 
#640
b0 ! 
#650
b1 ! 
b11 # 
#660
b0 ! 
#670
b1 ! 
b00 # 
#680
b0 ! 
#690
b1 ! 
b01 # 
#700
b0 ! 
#710
b1 ! 
b10 # 
#720
b0 ! 
#730
b1 ! 
b11 # 
#740
b0 ! 
#750
b1 ! 
b00 # 
#760
b0 ! 
#770
b1 ! 
b01 # 
#780
b0 ! 
#790
b1 ! 
b10 # 
#800
b0 ! 
#810
b1 ! 
b11 # 
#820
b0 ! 
#830
b1 ! 
b00 # 
#840
b0 ! 
#850
b1 ! 
b01 # 
#860
b0 ! 
#870
b1 ! 
b10 # 
#880
b0 ! 
#890
b1 ! 
b11 # 
#900
b0 ! 
#910
b1 ! 
b00 # 
#920
b0 ! 
#930
b1 ! 
b01 # 
#940
b0 ! 
#950
b1 ! 
b10 # 
#960
b0 ! 
#970
b1 ! 
b11 # 
#980
b0 ! 
#990
b1 ! 
b00 # 
#1000
b0 ! 
#1010
b1 ! 
b01 # 
#1020
b0 ! 
#1030
b1 ! 
b10 # 
#1040
b0 ! 
#1050
b1 ! 
b11 # 
#1060
b0 ! 
#1070
b1 ! 
b00 # 
#1080
b0 ! 
#1090
b1 ! 
b01 # 
#1100
b0 ! 
#1110
b1 ! 
b10 # 
#1120
b0 ! 
#1130
b1 ! 
b11 # 
#1140
b0 ! 
#1150
b1 ! 
b00 # 
#1160
b0 ! 
#1170
b1 ! 
b01 # 
#1180
b0 ! 
#1190
b1 ! 
b10 # 
#1200
b0 ! 
#1210
b1 ! 
b11 # 
#1220
b0 ! 
#1230
b1 ! 
b00 # 
#1240
b0 ! 
#1250
b1 ! 
b01 # 
#1260
b0 ! 
#1270
b1 ! 
b10 # 
#1280
b0 ! 
#1290
b1 ! 
b11 # 
#1300
b0 ! 
#1310
b1 ! 
b00 # 
#1320
b0 ! 
#1330
b1 ! 
b01 # 
#1340
b0 ! 
#1350
b1 ! 
b10 # 
#1360
b0 ! 
#1370
b1 ! 
b11 # 
#1380
b0 ! 
#1390
b1 ! 
b00 # 
#1400
b0 ! 
#1410
b1 ! 
b01 # 
#1420
b0 ! 
#1430
b1 ! 
b10 # 
#1440
b0 ! 
#1450
b1 ! 
b11 # 
#1460
b0 ! 
#1470
b1 ! 
b00 # 
#1480
b0 ! 
#1490
b1 ! 
b01 # 
#1500
b0 ! 
#1510
b1 ! 
b10 # 
#1520
b0 ! 
#1530
b1 ! 
b11 # 
#1540
b0 ! 
#1550
b1 ! 
b00 # 
#1560
b0 ! 
#1570
b1 ! 
b01 # 
#1580
b0 ! 
#1590
b1 ! 
b10 # 
#1600
b0 ! 
#1610
b1 ! 
b11 # 
#1620
b0 ! 
#1630
b1 ! 
b00 # 
#1640
b0 ! 
#1650
b1 ! 
b01 # 
#1660
b0 ! 
#1670
b1 ! 
b10 # 
#1680
b0 ! 
#1690
b1 ! 
b11 # 
#1700
b0 ! 
#1710
b1 ! 
b00 # 
#1720
b0 ! 
#1730
b1 ! 
b01 # 
#1740
b0 ! 
#1750
b1 ! 
b10 # 
#1760
b0 ! 
#1770
b1 ! 
b11 # 
#1780
b0 ! 
#1790
b1 ! 
b00 # 
#1800
b0 ! 
#1810
b1 ! 
b01 # 
#1820
b0 ! 
#1830
b1 ! 
b10 # 
#1840
b0 ! 
#1850
b1 ! 
b11 # 
#1860
b0 ! 
#1870
b1 ! 
b00 # 
#1880
b0 ! 
#1890
b1 ! 
b01 # 
#1900
b0 ! 
#1910
b1 ! 
b10 # 
#1920
b0 ! 
#1930
b1 ! 
b11 # 
#1940
b0 ! 
#1950
b1 ! 
b00 # 
#1960
b0 ! 
#1970
b1 ! 
b01 # 
#1980
b0 ! 
#1990
b1 ! 
b10 # 
#2000
b0 ! 
#2010
b1 ! 
b11 # 
#2020
b0 ! 
#2030
b1 ! 
b00 # 
#2040
b0 ! 
#2050
b1 ! 
b01 # 
#2060
b0 ! 
#2070
b1 ! 
b10 # 
#2080
b0 ! 
#2090
b1 ! 
b11 # 
#2100
b0 ! 
#2110
b1 ! 
b00 # 
#2120
b0 ! 
#2130
b1 ! 
b01 # 
#2140
b0 ! 
#2150
b1 ! 
b10 # 
#2160
b0 ! 
#2170
b1 ! 
b11 # 
#2180
b0 ! 
#2190
b1 ! 
b00 # 
#2200
b0 ! 
#2210
b1 ! 
b01 # 
#2220
b0 ! 
#2230
b1 ! 
b10 # 
#2240
b0 ! 
#2250
b1 ! 
b11 # 
#2260
b0 ! 
#2270
b1 ! 
b00 # 
#2280
b0 ! 
#2290
b1 ! 
b01 # 
#2300
b0 ! 
#2310
b1 ! 
b10 # 
#2320
b0 ! 
#2330
b1 ! 
b11 # 
#2340
b0 ! 
#2350
b1 ! 
b00 # 
#2360
b0 ! 
#2370
b1 ! 
b01 # 
#2380
b0 ! 
#2390
b1 ! 
b10 # 
#2400
b0 ! 
#2410
b1 ! 
b11 # 
#2420
b0 ! 
#2430
b1 ! 
b00 # 
#2440
b0 ! 
#2450
b1 ! 
b01 # 
#2460
b0 ! 
#2470
b1 ! 
b10 # 
#2480
b0 ! 
#2490
b1 ! 
b11 # 
#2500
b0 ! 
#2510
b1 ! 
b00 # 
#2520
b0 ! 
#2530
b1 ! 
b01 # 
#2540
b0 ! 
#2550
b1 ! 
b10 # 
#2560
b0 ! 
#2570
b1 ! 
b11 # 
#2580
b0 ! 
#2590
b1 ! 
b00 # 
#2600
b0 ! 
#2610
b1 ! 
b01 # 
#2620
b0 ! 
#2630
b1 ! 
b10 # 
#2640
b0 ! 
#2650
b1 ! 
b11 # 
#2660
b0 ! 
#2670
b1 ! 
b00 # 
#2680
b0 ! 
#2690
b1 ! 
b01 # 
#2700
b0 ! 
#2710
b1 ! 
b10 # 
#2720
b0 ! 
#2730
b1 ! 
b11 # 
#2740
b0 ! 
#2750
b1 ! 
b00 # 
#2760
b0 ! 
#2770
b1 ! 
b01 # 
#2780
b0 ! 
#2790
b1 ! 
b10 # 
#2800
b0 ! 
#2810
b1 ! 
b11 # 
#2820
b0 ! 
#2830
b1 ! 
b00 # 
#2840
b0 ! 
#2850
b1 ! 
b01 # 
#2860
b0 ! 
#2870
b1 ! 
b10 # 
#2880
b0 ! 
#2890
b1 ! 
b11 # 
#2900
b0 ! 
#2910
b1 ! 
b00 # 
#2920
b0 ! 
#2930
b1 ! 
b01 # 
#2940
b0 ! 
#2950
b1 ! 
b10 # 
#2960
b0 ! 
#2970
b1 ! 
b11 # 
#2980
b0 ! 
#2990
b1 ! 
b00 # 
#3000
b0 ! 
#3010
b1 ! 
b01 # 
#3020
b0 ! 
#3030
b1 ! 
b10 # 
#3040
b0 ! 
#3050
b1 ! 
b11 # 
#3060
b0 ! 
#3070
b1 ! 
b00 # 
#3080
b0 ! 
#3090
b1 ! 
b01 # 
#3100
b0 ! 
#3110
b1 ! 
b10 # 
#3120
b0 ! 
#3130
b1 ! 
b11 # 
#3140
b0 ! 
#3150
b1 ! 
b00 # 
#3160
b0 ! 
#3170
b1 ! 
b01 # 
#3180
b0 ! 
#3190
b1 ! 
b10 # 
#3200
b0 ! 
#3210
b1 ! 
b11 # 
#3220
b0 ! 
#3230
b1 ! 
b00 # 
#3240
b0 ! 
#3250
b1 ! 
b01 # 
#3260
b0 ! 
#3270
b1 ! 
b10 # 
#3280
b0 ! 
#3290
b1 ! 
b11 # 
#3300
b0 ! 
#3310
b1 ! 
b00 # 
#3320
b0 ! 
#3330
b1 ! 
b01 # 
#3340
b0 ! 
#3350
b1 ! 
b10 # 
#3360
b0 ! 
#3370
b1 ! 
b11 # 
#3380
b0 ! 
#3390
b1 ! 
b00 # 
#3400
b0 ! 
#3410
b1 ! 
b01 # 
#3420
b0 ! 
#3430
b1 ! 
b10 # 
#3440
b0 ! 
#3450
b1 ! 
b11 # 
#3460
b0 ! 
#3470
b1 ! 
b00 # 
#3480
b0 ! 
#3490
b1 ! 
b01 # 
#3500
b0 ! 
#3510
b1 ! 
b10 # 
#3520
b0 ! 
#3530
b1 ! 
b11 # 
#3540
b0 ! 
#3550
b1 ! 
b00 # 
#3560
b0 ! 
#3570
b1 ! 
b01 # 
#3580
b0 ! 
#3590
b1 ! 
b10 # 
#3600
b0 ! 
#3610
b1 ! 
b11 # 
#3620
b0 ! 
#3630
b1 ! 
b00 # 
#3640
b0 ! 
#3650
b1 ! 
b01 # 
#3660
b0 ! 
#3670
b1 ! 
b10 # 
#3680
b0 ! 
#3690
b1 ! 
b11 # 
#3700
b0 ! 
#3710
b1 ! 
b00 # 
#3720
b0 ! 
#3730
b1 ! 
b01 # 
#3740
b0 ! 
#3750
b1 ! 
b10 # 
#3760
b0 ! 
#3770
b1 ! 
b11 # 
#3780
b0 ! 
#3790
b1 ! 
b00 # 
#3800
b0 ! 
#3810
b1 ! 
b01 # 
#3820
b0 ! 
#3830
b1 ! 
b10 # 
#3840
b0 ! 
#3850
b1 ! 
b11 # 
#3860
b0 ! 
#3870
b1 ! 
b00 # 
#3880
b0 ! 
#3890
b1 ! 
b01 # 
#3900
b0 ! 
#3910
b1 ! 
b10 # 
#3920
b0 ! 
#3930
b1 ! 
b11 # 
#3940
b0 ! 
#3950
b1 ! 
b00 # 
#3960
b0 ! 
#3970
b1 ! 
b01 # 
#3980
b0 ! 
#3990
b1 ! 
b10 # 
#4000
b0 ! 
#4010
b1 ! 
b11 # 
#4020
b0 ! 
#4030
b1 ! 
b00 # 
#4040
b0 ! 
#4050
b1 ! 
b01 # 
#4060
b0 ! 
#4070
b1 ! 
b10 # 
#4080
b0 ! 
#4090
b1 ! 
b11 # 
#4100
b0 ! 
#4110
b1 ! 
b00 # 
#4120
b0 ! 
#4130
b1 ! 
b01 # 
#4140
b0 ! 
#4150
b1 ! 
b10 # 
#4160
b0 ! 
#4170
b1 ! 
b11 # 
#4180
b0 ! 
#4190
b1 ! 
b00 # 
#4200
b0 ! 
#4210
b1 ! 
b01 # 
#4220
b0 ! 
#4230
b1 ! 
b10 # 
#4240
b0 ! 
#4250
b1 ! 
b11 # 
#4260
b0 ! 
#4270
b1 ! 
b00 # 
#4280
b0 ! 
#4290
b1 ! 
b01 # 
#4300
b0 ! 
#4310
b1 ! 
b10 # 
#4320
b0 ! 
#4330
b1 ! 
b11 # 
#4340
b0 ! 
#4350
b1 ! 
b00 # 
#4360
b0 ! 
#4370
b1 ! 
b01 # 
#4380
b0 ! 
#4390
b1 ! 
b10 # 
#4400
b0 ! 
#4410
b1 ! 
b11 # 
#4420
b0 ! 
#4430
b1 ! 
b00 # 
#4440
b0 ! 
#4450
b1 ! 
b01 # 
#4460
b0 ! 
#4470
b1 ! 
b10 # 
#4480
b0 ! 
#4490
b1 ! 
b11 # 
#4500
b0 ! 
#4510
b1 ! 
b00 # 
#4520
b0 ! 
#4530
b1 ! 
b01 # 
#4540
b0 ! 
#4550
b1 ! 
b10 # 
#4560
b0 ! 
#4570
b1 ! 
b11 # 
#4580
b0 ! 
#4590
b1 ! 
b00 # 
#4600
b0 ! 
#4610
b1 ! 
b01 # 
#4620
b0 ! 
#4630
b1 ! 
b10 # 
#4640
b0 ! 
#4650
b1 ! 
b11 # 
#4660
b0 ! 
#4670
b1 ! 
b00 # 
#4680
b0 ! 
#4690
b1 ! 
b01 # 
#4700
b0 ! 
#4710
b1 ! 
b10 # 
#4720
b0 ! 
#4730
b1 ! 
b11 # 
#4740
b0 ! 
#4750
b1 ! 
b00 # 
#4760
b0 ! 
#4770
b1 ! 
b01 # 
#4780
b0 ! 
#4790
b1 ! 
b10 # 
#4800
b0 ! 
#4810
b1 ! 
b11 # 
#4820
b0 ! 
#4830
b1 ! 
b00 # 
#4840
b0 ! 
#4850
b1 ! 
b01 # 
#4860
b0 ! 
#4870
b1 ! 
b10 # 
#4880
b0 ! 
#4890
b1 ! 
b11 # 
#4900
b0 ! 
#4910
b1 ! 
b00 # 
#4920
b0 ! 
#4930
b1 ! 
b01 # 
#4940
b0 ! 
#4950
b1 ! 
b10 # 
#4960
b0 ! 
#4970
b1 ! 
b11 # 
#4980
b0 ! 
#4990
b1 ! 
b00 # 
#5000
b0 ! 
#5010
b1 ! 
b01 # 
#5020
b0 ! 
#5030
b1 ! 
b10 # 
#5040
b0 ! 
#5050
b1 ! 
b11 # 
#5060
b0 ! 
#5070
b1 ! 
b00 # 
#5080
b0 ! 
#5090
b1 ! 
b01 # 
#5100
b0 ! 
#5110
b1 ! 
b10 # 
#5120
b0 ! 
#5130
b1 ! 
b11 # 
#5140
b0 ! 
#5150
b1 ! 
b00 # 
#5160
b0 ! 
#5170
b1 ! 
b01 # 
#5180
b0 ! 
#5190
b1 ! 
b10 # 
#5200
b0 ! 
#5210
b1 ! 
b11 # 
#5220
b0 ! 
#5230
b1 ! 
b00 # 
#5240
b0 ! 
#5250
b1 ! 
b01 # 
#5260
b0 ! 
#5270
b1 ! 
b10 # 
#5280
b0 ! 
#5290
b1 ! 
b11 # 
#5300
b0 ! 
#5310
b1 ! 
b00 # 
#5320
b0 ! 
#5330
b1 ! 
b01 # 
#5340
b0 ! 
#5350
b1 ! 
b10 # 
#5360
b0 ! 
#5370
b1 ! 
b11 # 
#5380
b0 ! 
#5390
b1 ! 
b00 # 
#5400
b0 ! 
#5410
b1 ! 
b01 # 
#5420
b0 ! 
#5430
b1 ! 
b10 # 
#5440
b0 ! 
#5450
b1 ! 
b11 # 
#5460
b0 ! 
#5470
b1 ! 
b00 # 
#5480
b0 ! 
#5490
b1 ! 
b01 # 
#5500
b0 ! 
#5510
b1 ! 
b10 # 
#5520
b0 ! 
#5530
b1 ! 
b11 # 
#5540
b0 ! 
#5550
b1 ! 
b00 # 
#5560
b0 ! 
#5570
b1 ! 
b01 # 
#5580
b0 ! 
#5590
b1 ! 
b10 # 
#5600
b0 ! 
#5610
b1 ! 
b11 # 
#5620
b0 ! 
#5630
b1 ! 
b00 # 
#5640
b0 ! 
#5650
b1 ! 
b01 # 
#5660
b0 ! 
#5670
b1 ! 
b10 # 
#5680
b0 ! 
#5690
b1 ! 
b11 # 
#5700
b0 ! 
#5710
b1 ! 
b00 # 
#5720
b0 ! 
#5730
b1 ! 
b01 # 
#5740
b0 ! 
#5750
b1 ! 
b10 # 
#5760
b0 ! 
#5770
b1 ! 
b11 # 
#5780
b0 ! 
#5790
b1 ! 
b00 # 
#5800
b0 ! 
#5810
b1 ! 
b01 # 
#5820
b0 ! 
#5830
b1 ! 
b10 # 
#5840
b0 ! 
#5850
b1 ! 
b11 # 
#5860
b0 ! 
#5870
b1 ! 
b00 # 
#5880
b0 ! 
#5890
b1 ! 
b01 # 
#5900
b0 ! 
#5910
b1 ! 
b10 # 
#5920
b0 ! 
#5930
b1 ! 
b11 # 
#5940
b0 ! 
#5950
b1 ! 
b00 # 
#5960
b0 ! 
#5970
b1 ! 
b01 # 
#5980
b0 ! 
#5990
b1 ! 
b10 # 
#6000
b0 ! 
#6010
b1 ! 
b11 # 
#6020
b0 ! 
#6030
b1 ! 
b00 # 
#6040
b0 ! 
#6050
b1 ! 
b01 # 
#6060
b0 ! 
#6070
b1 ! 
b10 # 
#6080
b0 ! 
#6090
b1 ! 
b11 # 
#6100
b0 ! 
#6110
b1 ! 
b00 # 
#6120
b0 ! 
#6130
b1 ! 
b01 # 
#6140
b0 ! 
#6150
b1 ! 
b10 # 
#6160
b0 ! 
#6170
b1 ! 
b11 # 
#6180
b0 ! 
#6190
b1 ! 
b00 # 
#6200
b0 ! 
#6210
b1 ! 
b01 # 
#6220
b0 ! 
#6230
b1 ! 
b10 # 
#6240
b0 ! 
#6250
b1 ! 
b11 # 
#6260
b0 ! 
#6270
b1 ! 
b00 # 
#6280
b0 ! 
#6290
b1 ! 
b01 # 
#6300
b0 ! 
#6310
b1 ! 
b10 # 
#6320
b0 ! 
#6330
b1 ! 
b11 # 
#6340
b0 ! 
#6350
b1 ! 
b00 # 
#6360
b0 ! 
#6370
b1 ! 
b01 # 
#6380
b0 ! 
#6390
b1 ! 
b10 # 
#6400
b0 ! 
#6410
b1 ! 
b11 # 
#6420
b0 ! 
#6430
b1 ! 
b00 # 
#6440
b0 ! 
#6450
b1 ! 
b01 # 
#6460
b0 ! 
#6470
b1 ! 
b10 # 
#6480
b0 ! 
#6490
b1 ! 
b11 # 
#6500
b0 ! 
#6510
b1 ! 
b00 # 
#6520
b0 ! 
#6530
b1 ! 
b01 # 
#6540
b0 ! 
#6550
b1 ! 
b10 # 
#6560
b0 ! 
#6570
b1 ! 
b11 # 
#6580
b0 ! 
#6590
b1 ! 
b00 # 
#6600
b0 ! 
#6610
b1 ! 
b01 # 
#6620
b0 ! 
#6630
b1 ! 
b10 # 
#6640
b0 ! 
#6650
b1 ! 
b11 # 
#6660
b0 ! 
#6670
b1 ! 
b00 # 
#6680
b0 ! 
#6690
b1 ! 
b01 # 
#6700
b0 ! 
#6710
b1 ! 
b10 # 
#6720
b0 ! 
#6730
b1 ! 
b11 # 
#6740
b0 ! 
#6750
b1 ! 
b00 # 
#6760
b0 ! 
#6770
b1 ! 
b01 # 
#6780
b0 ! 
#6790
b1 ! 
b10 # 
#6800
b0 ! 
#6810
b1 ! 
b11 # 
#6820
b0 ! 
#6830
b1 ! 
b00 # 
#6840
b0 ! 
#6850
b1 ! 
b01 # 
#6860
b0 ! 
#6870
b1 ! 
b10 # 
#6880
b0 ! 
#6890
b1 ! 
b11 # 
#6900
b0 ! 
#6910
b1 ! 
b00 # 
#6920
b0 ! 
#6930
b1 ! 
b01 # 
#6940
b0 ! 
#6950
b1 ! 
b10 # 
#6960
b0 ! 
#6970
b1 ! 
b11 # 
#6980
b0 ! 
#6990
b1 ! 
b00 # 
#7000
b0 ! 
#7010
b1 ! 
b01 # 
#7020
b0 ! 
#7030
b1 ! 
b10 # 
#7040
b0 ! 
#7050
b1 ! 
b11 # 
#7060
b0 ! 
#7070
b1 ! 
b00 # 
#7080
b0 ! 
#7090
b1 ! 
b01 # 
#7100
b0 ! 
