tests/h2dl-2.x/sim2/test_reset.vcd
$date
Thu Apr 25 22:17:41 CET 47658
$end
$version
H2DL 2.x Simulator Test
$end
$timescale 1ps $end
$scope module tb_top $end
$var reg 1 ! ck1 $end
$var reg 1 " reset $end
$var reg 4 # sr $end
$upscope $end
$enddefinitions $end
$dumpvars
bx !
bx "
b0101 # 
$end
b0 ! 
b0 " 
#10
b1 ! 
b0100 # 
b0110 # 
b0010 # 
b1010 # 
#20
b0 ! 
#25
#30
b1 ! 
b1010 # 
b1000 # 
b1100 # 
b0100 # 
#40
b0 ! 
#45
#50
b1 ! 
b0100 # 
b0100 # 
b0000 # 
b1000 # 
#60
b0 ! 
#70
b1 ! 
b1000 # 
b1000 # 
b1000 # 
b0000 # 
#80
b0 ! 
#90
b1 ! 
b0000 # 
b0000 # 
b0000 # 
b0000 # 
#100
b0 ! 
#110
b1 ! 
b0000 # 
b0000 # 
b0000 # 
b0000 # 
#120
b0 ! 
#130
b1 ! 
b0000 # 
b0000 # 
b0000 # 
b0000 # 
#140
b0 ! 
#150
b1 ! 
b0000 # 
b0000 # 
b0000 # 
b0000 # 
#160
b0 ! 
#170
b1 ! 
b0000 # 
b0000 # 
b0000 # 
b0000 # 
#180
b0 ! 
#190
b1 ! 
b0000 # 
b0000 # 
b0000 # 
b0000 # 
#200
b0 ! 
#210
b1 ! 
b0000 # 
b0000 # 
b0000 # 
b0000 # 
#220
b0 ! 
#230
b1 ! 
b0000 # 
b0000 # 
b0000 # 
b0000 # 
#240
b0 ! 
