tests/h2dl-2.x/test.vcd
$date
Fri Aug 14 07:42:41 CET 47620
$end
$version
H2DL 2.x Simulator Test
$end
$timescale 1ps $end
$scope module tb_top $end
$var reg 1 ! v2 $end
$var reg 1 " v1 $end
$var reg 1 # clk $end
$upscope $end
$enddefinitions $end
$dumpvars
b0 ! 
bx " 
bx # 
$end
#0
b0 " 
b0 # 
#10
b1 # 
b1 " 
b0 ! 
b1 " 
#20
b0 # 
#30
b1 # 
b1 " 
b1 ! 
b1 " 
#40
b0 # 
#50
b1 # 
b0 " 
b1 ! 
b0 " 
#60
b0 # 
#70
b1 # 
b0 " 
b0 ! 
b0 " 
#80
b0 # 
#90
b1 # 
b1 " 
b0 ! 
b1 " 
#100
b0 # 
#110
b1 # 
b1 " 
b1 ! 
b1 " 
#120
b0 # 
#130
b1 # 
b0 " 
b1 ! 
b0 " 
#140
b0 # 
